lab1/waveform.vcd
$date
	Tue Oct 31 20:11:51 2023
$end
$version
	Icarus Verilog
$end
$timescale
	1s
$end
$scope module TestBench $end
$var reg 1 ! Clk $end
$var reg 1 " Reset $end
$var integer 32 # counter [31:0] $end
$var integer 32 $ i [31:0] $end
$var integer 32 % outfile [31:0] $end
$scope module CPU $end
$var wire 1 ! clk_i $end
$var wire 1 & regwrite $end
$var wire 1 " rst_i $end
$var wire 1 ' zero $end
$var wire 32 ( rs2data [31:0] $end
$var wire 5 ) rs2 [4:0] $end
$var wire 32 * rs1data [31:0] $end
$var wire 5 + rs1 [4:0] $end
$var wire 5 , rd [4:0] $end
$var wire 32 - pc [31:0] $end
$var wire 7 . opcode [6:0] $end
$var wire 32 / instr_add [31:0] $end
$var wire 32 0 instr [31:0] $end
$var wire 12 1 imm [11:0] $end
$var wire 7 2 funct7 [6:0] $end
$var wire 3 3 funct3 [2:0] $end
$var wire 32 4 ext_imm [31:0] $end
$var wire 1 5 alusrc $end
$var wire 2 6 aluop [1:0] $end
$var wire 3 7 aluctr [2:0] $end
$var wire 32 8 alu_sec [31:0] $end
$var wire 32 9 alu_result [31:0] $end
$scope module ALU $end
$var wire 32 : data_o [31:0] $end
$var wire 1 ' zero_o $end
$var wire 32 ; data2_i [31:0] $end
$var wire 32 < data1_i [31:0] $end
$var wire 3 = aluctr_i [2:0] $end
$var reg 32 > tmp [31:0] $end
$upscope $end
$scope module ALU_Control $end
$var wire 3 ? aluctr_o [2:0] $end
$var wire 3 @ funct3_i [2:0] $end
$var wire 7 A funct7_i [6:0] $end
$var wire 10 B funct [9:0] $end
$var wire 2 C aluop_i [1:0] $end
$var reg 3 D tmp [2:0] $end
$upscope $end
$scope module Add_PC $end
$var wire 32 E data2_i [31:0] $end
$var wire 32 F data_o [31:0] $end
$var wire 32 G data1_i [31:0] $end
$upscope $end
$scope module Control $end
$var wire 7 H op_i [6:0] $end
$var wire 1 & regwrite_o $end
$var wire 1 5 alusrc_o $end
$var wire 2 I aluop_o [1:0] $end
$upscope $end
$scope module Instruction_Memory $end
$var wire 32 J instr_o [31:0] $end
$var wire 32 K addr_i [31:0] $end
$upscope $end
$scope module MUX_ALUSrc $end
$var wire 1 5 src_i $end
$var wire 32 L data_o [31:0] $end
$var wire 32 M data1_i [31:0] $end
$var wire 32 N data0_i [31:0] $end
$upscope $end
$scope module PC $end
$var wire 1 ! clk_i $end
$var wire 32 O pc_i [31:0] $end
$var wire 1 " rst_i $end
$var reg 32 P pc_o [31:0] $end
$upscope $end
$scope module Registers $end
$var wire 5 Q RDaddr_i [4:0] $end
$var wire 32 R RDdata_i [31:0] $end
$var wire 5 S RS1addr_i [4:0] $end
$var wire 32 T RS1data_o [31:0] $end
$var wire 5 U RS2addr_i [4:0] $end
$var wire 32 V RS2data_o [31:0] $end
$var wire 1 & RegWrite_i $end
$var wire 1 ! clk_i $end
$var wire 1 " rst_i $end
$var integer 32 W i [31:0] $end
$upscope $end
$scope module Sign_Extend $end
$var wire 12 X data_i [11:0] $end
$var wire 32 Y data_o [31:0] $end
$upscope $end
$upscope $end
$upscope $end
$enddefinitions $end
$comment Show the parameter values. $end
$dumpall
$end
#0
$dumpvars
b1010 Y
b1010 X
b100000 W
b0 V
b1010 U
b0 T
b0 S
b1010 R
b101 Q
b0 P
b100 O
b0 N
b1010 M
b1010 L
b0 K
b101000000000001010010011 J
b1 I
b10011 H
b0 G
b100 F
b100 E
b110 D
b1 C
b0 B
b0 A
b0 @
b110 ?
b1010 >
b110 =
b0 <
b1010 ;
b1010 :
b1010 9
b1010 8
b110 7
b1 6
15
b1010 4
b0 3
b0 2
b1010 1
b101000000000001010010011 0
b0 /
b10011 .
b100 -
b101 ,
b0 +
b0 *
b1010 )
b0 (
0'
1&
b11 %
b100000000 $
b0 #
0"
0!
$end
#12
1"
#25
b1101 9
b1101 :
b1101 R
b1101 >
b1101 8
b1101 ;
b1101 L
b1101 4
b1101 M
b1101 Y
b1101 1
b1101 X
b110 ,
b110 Q
b1101 )
b1101 U
b110100000000001100010011 0
b110100000000001100010011 J
b1000 -
b1000 F
b1000 O
b100 /
b100 G
b100 K
b100 P
b1 #
1!
#50
0!
#75
b101 7
b101 =
b101 ?
b101 D
b10 6
b10 C
b10 I
05
b10000010 9
b10000010 :
b10000010 R
b10000010 >
b100110 4
b100110 M
b100110 Y
b100110 1
b100110 X
b110011 .
b110011 H
b111 ,
b111 Q
b1010 *
b1010 <
b1010 T
b101 +
b101 S
b1101 (
b1101 N
b1101 V
b110 )
b110 U
b1000 B
b1 2
b1 A
b10011000101000001110110011 0
b10011000101000001110110011 J
b1100 -
b1100 F
b1100 O
b1000 /
b1000 G
b1000 K
b1000 P
b10 #
1!
#100
0!
#125
b10101001 9
b10101001 :
b10101001 R
b10101001 >
b11100 ,
b11100 Q
b1101 *
b1101 <
b1101 T
b110 +
b110 S
b10011000110000111000110011 0
b10011000110000111000110011 J
b10000 -
b10000 F
b10000 O
b1100 /
b1100 G
b1100 K
b1100 P
b11 #
1!
#150
0!
#175
b110 7
b110 =
b110 ?
b110 D
b1100 9
b1100 :
b1100 R
b1100 >
b1 6
b1 C
b1 I
15
b11111111111111111111111111111111 8
b11111111111111111111111111111111 ;
b11111111111111111111111111111111 L
b11111111111111111111111111111111 4
b11111111111111111111111111111111 M
b11111111111111111111111111111111 Y
b111111111111 1
b111111111111 X
b10011 .
b10011 H
b110 ,
b110 Q
b0 (
b0 N
b0 V
b11111 )
b11111 U
b1111111000 B
b1111111 2
b1111111 A
b11111111111100110000001100010011 0
b11111111111100110000001100010011 J
b10100 -
b10100 F
b10100 O
b10000 /
b10000 G
b10000 K
b10000 P
b100 #
1!
#200
0!
#225
b11111 8
b11111 ;
b11111 L
b11111 4
b11111 M
b11111 Y
b11111 1
b11111 X
b11110 ,
b11110 Q
b0 +
b0 S
b0 B
b0 2
b0 A
b11111 9
b11111 :
b11111 R
b11111 >
b1111100000000111100010011 0
b1111100000000111100010011 J
b0 *
b0 <
b0 T
b11000 -
b11000 F
b11000 O
b10100 /
b10100 G
b10100 K
b10100 P
b101 #
1!
#250
0!
#275
b10000010 8
b10000010 ;
b10000010 L
b10 6
b10 C
b10 I
05
b0 7
b0 =
b0 ?
b0 D
b0 9
b0 :
b0 R
b0 >
b111 4
b111 M
b111 Y
b111 1
b111 X
b110011 .
b110011 H
b11100 ,
b11100 Q
b111 B
b111 3
b111 @
b1100 *
b1100 <
b1100 T
b110 +
b110 S
b10000010 (
b10000010 N
b10000010 V
b111 )
b111 U
b11100110111111000110011 0
b11100110111111000110011 J
b11100 -
b11100 F
b11100 O
b11000 /
b11000 G
b11000 K
b11000 P
b110 #
1!
#300
0!
#325
b10000010 9
b10000010 :
b10000010 R
b10000010 >
b1 7
b1 =
b1 ?
b1 D
b11101 ,
b11101 Q
b100 B
b100 3
b100 @
b0 *
b0 <
b0 T
b11100 +
b11100 S
b11111100100111010110011 0
b11111100100111010110011 J
b100000 -
b100000 F
b100000 O
b11100 /
b11100 G
b11100 K
b11100 P
b111 #
1!
#350
0!
#375
b0 9
b0 :
b0 R
b0 >
b0 8
b0 ;
b0 L
b1101 4
b1101 M
b1101 Y
b1101 1
b1101 X
b1110 ,
b1110 Q
b1010 +
b1010 S
b0 (
b0 N
b0 V
b1101 )
b1101 U
b110101010100011100110011 0
b110101010100011100110011 J
b100100 -
b100100 F
b100100 O
b100000 /
b100000 G
b100000 K
b100000 P
b1000 #
1!
#400
0!
#425
b11111111111111111111111101111110 9
b11111111111111111111111101111110 :
b11111111111111111111111101111110 R
b11111111111111111111111101111110 >
b10000010 8
b10000010 ;
b10000010 L
b100 7
b100 =
b100 ?
b100 D
b10000000111 4
b10000000111 M
b10000000111 Y
b10000000111 1
b10000000111 X
b101 ,
b101 Q
b0 3
b0 @
b11100 +
b11100 S
b10000010 (
b10000010 N
b10000010 V
b111 )
b111 U
b100000000 B
b100000 2
b100000 A
b1000000011111100000001010110011 0
b1000000011111100000001010110011 J
b101000 -
b101000 F
b101000 O
b100100 /
b100100 G
b100100 K
b100100 P
b1001 #
1!
#450
0!
#475
b110 7
b110 =
b110 ?
b110 D
b11111111111111111111111111111000 9
b11111111111111111111111111111000 :
b11111111111111111111111111111000 R
b11111111111111111111111111111000 >
b1 6
b1 C
b1 I
15
b11111111111111111111111111111000 8
b11111111111111111111111111111000 ;
b11111111111111111111111111111000 L
b11111111111111111111111111111000 4
b11111111111111111111111111111000 M
b11111111111111111111111111111000 Y
b111111111000 1
b111111111000 X
b10011 .
b10011 H
b11111 ,
b11111 Q
b11111 +
b11111 S
b0 (
b0 N
b0 V
b11000 )
b11000 U
b1111111000 B
b1111111 2
b1111111 A
b11111111100011111000111110010011 0
b11111111100011111000111110010011 J
b101100 -
b101100 F
b101100 O
b101000 /
b101000 G
b101000 K
b101000 P
b1010 #
1!
#500
0!
#525
b11111111111111111111111111110000 9
b11111111111111111111111111110000 :
b11111111111111111111111111110000 R
b11111111111111111111111111110000 >
b11111111111111111111111111111000 *
b11111111111111111111111111111000 <
b11111111111111111111111111111000 T
b110000 -
b110000 F
b110000 O
b101100 /
b101100 G
b101100 K
b101100 P
b1011 #
1!
#550
0!
#575
b11111111111111111111111111101000 9
b11111111111111111111111111101000 :
b11111111111111111111111111101000 R
b11111111111111111111111111101000 >
b110100 -
b110100 F
b110100 O
b110000 /
b110000 G
b110000 K
b110000 P
b11111111111111111111111111110000 *
b11111111111111111111111111110000 <
b11111111111111111111111111110000 T
b1100 #
1!
#600
0!
#625
b111111 8
b111111 ;
b111111 L
b111111 4
b111111 M
b111111 Y
b111111 1
b111111 X
b111 ,
b111 Q
b0 +
b0 S
b11111111111111111111111111101000 (
b11111111111111111111111111101000 N
b11111111111111111111111111101000 V
b11111 )
b11111 U
b1000 B
b1 2
b1 A
b111111 9
b111111 :
b111111 R
b111111 >
b11111100000000001110010011 0
b11111100000000001110010011 J
b0 *
b0 <
b0 T
b111000 -
b111000 F
b111000 O
b110100 /
b110100 G
b110100 K
b110100 P
b1101 #
1!
#650
0!
#675
b10000000010 8
b10000000010 ;
b10000000010 L
b1111 9
b1111 :
b1111 R
b1111 >
b111 7
b111 =
b111 ?
b111 D
b10000000010 4
b10000000010 M
b10000000010 Y
b10000000010 1
b10000000010 X
b101 3
b101 @
b111111 *
b111111 <
b111111 T
b111 +
b111 S
b0 (
b0 N
b0 V
b10 )
b10 U
b100000101 B
b100000 2
b100000 A
b1000000001000111101001110010011 0
b1000000001000111101001110010011 J
b111100 -
b111100 F
b111100 O
b111000 /
b111000 G
b111000 K
b111000 P
b1110 #
1!
#700
0!
#725
b11 9
b11 :
b11 R
b11 >
b1111 *
b1111 <
b1111 T
b1000000 -
b1000000 F
b1000000 O
b111100 /
b111100 G
b111100 K
b111100 P
b1111 #
1!
#750
0!
#775
b0 9
b0 :
b0 R
b0 >
b1000100 -
b1000100 F
b1000100 O
b1000000 /
b1000000 G
b1000000 K
b1000000 P
b11 *
b11 <
b11 T
b10000 #
1!
#800
0!
#825
b10000000001 8
b10000000001 ;
b10000000001 L
b110 9
b110 :
b110 R
b110 >
b10000000001 4
b10000000001 M
b10000000001 Y
b10000000001 1
b10000000001 X
b110 ,
b110 Q
b110 +
b110 S
b1 )
b1 U
b1000000000100110101001100010011 0
b1000000000100110101001100010011 J
b1100 *
b1100 <
b1100 T
b1001000 -
b1001000 F
b1001000 O
b1000100 /
b1000100 G
b1000100 K
b1000100 P
b10001 #
1!
#850
0!
#875
b11 9
b11 :
b11 R
b11 >
b1001100 -
b1001100 F
b1001100 O
b1001000 /
b1001000 G
b1001000 K
b1001000 P
b110 *
b110 <
b110 T
b10010 #
1!
#900
0!
#925
b1 9
b1 :
b1 R
b1 >
b11 *
b11 <
b11 T
b1010000 -
b1010000 F
b1010000 O
b1001100 /
b1001100 G
b1001100 K
b1001100 P
b10011 #
1!
#950
0!
#975
b10 7
b10 =
b10 ?
b10 D
b1 8
b1 ;
b1 L
b10 6
b10 C
b10 I
05
b110 4
b110 M
b110 Y
b110 1
b110 X
b110011 .
b110011 H
b11111 ,
b11111 Q
b1 3
b1 @
b11111 +
b11111 S
b1 (
b1 N
b1 V
b110 )
b110 U
b1 B
b0 2
b0 A
b11011111001111110110011 0
b11011111001111110110011 J
b11111111111111111111111111010000 9
b11111111111111111111111111010000 :
b11111111111111111111111111010000 R
b11111111111111111111111111010000 >
b1010100 -
b1010100 F
b1010100 O
b1010000 /
b1010000 G
b1010000 K
b1010000 P
b11111111111111111111111111101000 *
b11111111111111111111111111101000 <
b11111111111111111111111111101000 T
b10100 #
1!
#1000
0!
#1025
b11111111111111111111111110100000 9
b11111111111111111111111110100000 :
b11111111111111111111111110100000 R
b11111111111111111111111110100000 >
b11111111111111111111111111010000 *
b11111111111111111111111111010000 <
b11111111111111111111111111010000 T
b1011000 -
b1011000 F
b1011000 O
b1010100 /
b1010100 G
b1010100 K
b1010100 P
b10101 #
1!
#1050
0!
#1075
b0 6
b0 C
b0 I
b11 7
b11 =
b11 ?
b11 D
b0 8
b0 ;
b0 L
b0 4
b0 M
b0 Y
b0 1
b0 X
b0 .
b0 H
b0 ,
b0 Q
b0 B
b0 3
b0 @
b0 +
b0 S
b0 (
b0 N
b0 V
b0 )
b0 U
b0 0
b0 J
b0 9
b0 :
b0 R
b0 >
b1011100 -
b1011100 F
b1011100 O
b1011000 /
b1011000 G
b1011000 K
b1011000 P
b0 *
b0 <
b0 T
b10110 #
1!
#1100
0!
#1125
b1100000 -
b1100000 F
b1100000 O
b1011100 /
b1011100 G
b1011100 K
b1011100 P
b10111 #
1!
#1150
0!
#1175
b1100100 -
b1100100 F
b1100100 O
b1100000 /
b1100000 G
b1100000 K
b1100000 P
b11000 #
1!
#1200
0!
#1225
b1101000 -
b1101000 F
b1101000 O
b1100100 /
b1100100 G
b1100100 K
b1100100 P
b11001 #
1!
#1250
0!
#1275
b1101100 -
b1101100 F
b1101100 O
b1101000 /
b1101000 G
b1101000 K
b1101000 P
b11010 #
1!
#1300
0!
#1325
b1110000 -
b1110000 F
b1110000 O
b1101100 /
b1101100 G
b1101100 K
b1101100 P
b11011 #
1!
#1350
0!
#1375
b1110100 -
b1110100 F
b1110100 O
b1110000 /
b1110000 G
b1110000 K
b1110000 P
b11100 #
1!
#1400
0!
#1425
b1111000 -
b1111000 F
b1111000 O
b1110100 /
b1110100 G
b1110100 K
b1110100 P
b11101 #
1!
#1450
0!
#1475
b1111100 -
b1111100 F
b1111100 O
b1111000 /
b1111000 G
b1111000 K
b1111000 P
b11110 #
1!
#1500
0!
#1525
b10000000 -
b10000000 F
b10000000 O
b1111100 /
b1111100 G
b1111100 K
b1111100 P
1!
